{
    "info": {
        "title": "ORD(api alpha)",
        "version": "1.0.1"
    },
    "openapi": "3.0.0",
    "servers": [
        {
            "url": "http://85.193.83.199:8000/",
            "description": "",
            "variables": {}
        },
        {
            "url": "http://localhost:8000/",
            "description": "",
            "variables": {}
        }
    ],
    "paths": {
        "/api/advertiser": {
            "post": {
                "summary": "create",
                "operationId": "createcreative",
                "parameters": [],
                "responses": {
                    "200": {
                        "description": "",
                        "headers": {}
                    }
                },
                "requestBody": {
                    "required": true,
                    "content": {
                        "multipart/form-data": {
                            "schema": {
                                "type": "object",
                                "required": [
                                    "inn",
                                    "name",
                                    "codeCountry",
                                    "regNumberFor",
                                    "innFor",
                                    "citizenName",
                                    "numberPay"
                                ],
                                "properties": {
                                    "inn": {
                                        "type": "string",
                                        "example": "444"
                                    },
                                    "numberPay": {
                                        "type": "string",
                                        "example": "123456789"
                                    },
                                    "codeCountry": {
                                        "type": "string",
                                        "example": "1"
                                    },
                                    "regNumberFor": {
                                        "type": "string",
                                        "example": "123456789"
                                    },
                                    "innFor": {
                                        "type": "string",
                                        "example": "123456789"
                                    },
                                    "name": {
                                        "type": "string",
                                        "example": "222"
                                    },
                                    "citizenName": {
                                        "type": "string",
                                        "example": "222"
                                    }
                                }
                            }
                        }
                    }
                },
                "tags": [
                    "advertiser"
                ]
            }
        },
        "/api/advertisers": {
            "get": {
                "summary": "list",
                "operationId": "list",
                "parameters": [],
                "responses": {
                    "200": {
                        "description": "",
                        "headers": {}
                    }
                },
                "tags": [
                    "advertiser"
                ]
            }
        },
        "/api/advertiser/{id}": {
            "parameters": [
                {
                    "in": "path",
                    "name": "id",
                    "schema": {
                        "type": "integer"
                    },
                    "required": true
                }
            ],
            "put": {
                "summary": "update",
                "operationId": "update",
                "responses": {
                    "200": {
                        "description": "",
                        "headers": {}
                    }
                },
                "requestBody": {
                    "required": true,
                    "content": {
                        "application/x-www-form-urlencoded": {
                            "schema": {
                                "type": "object",
                                "required": [
                                    "inn",
                                    "name",
                                    "codeCountry",
                                    "regNumberFor",
                                    "innFor",
                                    "citizenName",
                                    "numberPay"
                                ],
                                "properties": {
                                    "inn": {
                                        "type": "string",
                                        "example": "444"
                                    },
                                    "numberPay": {
                                        "type": "string",
                                        "example": "123456789"
                                    },
                                    "codeCountry": {
                                        "type": "string",
                                        "example": "1"
                                    },
                                    "regNumberFor": {
                                        "type": "string",
                                        "example": "123456789"
                                    },
                                    "innFor": {
                                        "type": "string",
                                        "example": "123456789"
                                    },
                                    "name": {
                                        "type": "string",
                                        "example": "222"
                                    },
                                    "citizenName": {
                                        "type": "string",
                                        "example": "222"
                                    }
                                }
                            }
                        }
                    }
                },
                "tags": [
                    "advertiser"
                ]
            },
            "get": {
                "summary": "view",
                "operationId": "view",
                "parameters": [],
                "responses": {
                    "200": {
                        "description": "",
                        "headers": {}
                    }
                },
                "tags": [
                    "advertiser"
                ]
            },
            "delete": {
                "summary": "delete",
                "operationId": "delete",
                "parameters": [],
                "responses": {
                    "200": {
                        "description": "",
                        "headers": {}
                    }
                },
                "tags": [
                    "advertiser"
                ]
            }
        },
        "/api/agency": {
            "post": {
                "summary": "create",
                "operationId": "create0",
                "parameters": [],
                "responses": {
                    "200": {
                        "description": "",
                        "headers": {}
                    }
                },
                "requestBody": {
                    "required": true,
                    "content": {
                        "multipart/form-data": {
                            "schema": {
                                "type": "object",
                                "required": [
                                    "inn",
                                    "name",
                                    "ogrn",
                                    "address",
                                    "citizenName",
                                    "numberPhone",
                                    "numberPay",
                                    "codeCountry",
                                    "regNumberFor",
                                    "innFor"
                                ],
                                "properties": {
                                    "inn": {
                                        "type": "string",
                                        "example": "3664567397"
                                    },
                                    "name": {
                                        "type": "string",
                                        "example": "4563"
                                    },
                                    "ogrn": {
                                        "type": "string",
                                        "example": "1053567591197"
                                    },
                                    "address": {
                                        "type": "string",
                                        "example": "address"
                                    },
                                    "citizenName": {
                                        "type": "string",
                                        "example": "citizenName"
                                    },
                                    "numberPhone": {
                                        "type": "string",
                                        "example": "+890000000"
                                    },
                                    "numberPay": {
                                        "type": "string",
                                        "example": "1234567890"
                                    },
                                    "codeCountry": {
                                        "type": "string",
                                        "example": "7"
                                    },
                                    "regNumberFor": {
                                        "type": "string",
                                        "example": "1250"
                                    },
                                    "innFor": {
                                        "type": "string",
                                        "example": "1250"
                                    }
                                }
                            }
                        }
                    }
                },
                "tags": [
                    "agency"
                ]
            }
        },
        "/api/agencies": {
            "get": {
                "summary": "list",
                "operationId": "list1",
                "parameters": [],
                "responses": {
                    "200": {
                        "description": "",
                        "headers": {}
                    }
                },
                "tags": [
                    "agency"
                ]
            }
        },
        "/api/agency/{id}": {
            "parameters": [
                {
                    "in": "path",
                    "name": "id",
                    "schema": {
                        "type": "integer"
                    },
                    "required": true
                }
            ],
            "put": {
                "summary": "update",
                "operationId": "update2agency",
                "parameters": [],
                "responses": {
                    "200": {
                        "description": "",
                        "headers": {}
                    }
                },
                "requestBody": {
                    "required": true,
                    "content": {
                        "application/x-www-form-urlencoded": {
                            "schema": {
                                "type": "object",
                                "required": [
                                    "inn",
                                    "name",
                                    "ogrn",
                                    "address",
                                    "citizenName",
                                    "numberPhone",
                                    "numberPay",
                                    "codeCountry",
                                    "regNumberFor",
                                    "innFor"
                                ],
                                "properties": {
                                    "inn": {
                                        "type": "string",
                                        "example": "3664567397"
                                    },
                                    "name": {
                                        "type": "string",
                                        "example": "4563"
                                    },
                                    "ogrn": {
                                        "type": "string",
                                        "example": "1053567591197"
                                    },
                                    "address": {
                                        "type": "string",
                                        "example": "address"
                                    },
                                    "citizenName": {
                                        "type": "string",
                                        "example": "citizenName"
                                    },
                                    "numberPhone": {
                                        "type": "string",
                                        "example": "+890000000"
                                    },
                                    "numberPay": {
                                        "type": "string",
                                        "example": "1234567890"
                                    },
                                    "codeCountry": {
                                        "type": "string",
                                        "example": "7"
                                    },
                                    "regNumberFor": {
                                        "type": "string",
                                        "example": "1250"
                                    },
                                    "innFor": {
                                        "type": "string",
                                        "example": "1250"
                                    }
                                }
                            }
                        }
                    }
                },
                "tags": [
                    "agency"
                ]
            },
            "get": {
                "summary": "view",
                "operationId": "view3",
                "parameters": [],
                "responses": {
                    "200": {
                        "description": "",
                        "headers": {}
                    }
                },
                "tags": [
                    "agency"
                ]
            },
            "delete": {
                "summary": "delete",
                "operationId": "delete4",
                "parameters": [],
                "responses": {
                    "200": {
                        "description": "",
                        "headers": {}
                    }
                },
                "tags": [
                    "agency"
                ]
            }
        },
        "/api/campaign": {
            "post": {
                "summary": "create",
                "operationId": "create0campaign",
                "parameters": [],
                "responses": {
                    "200": {
                        "description": "",
                        "headers": {}
                    }
                },
                "requestBody": {
                    "required": true,
                    "content": {
                        "multipart/form-data": {
                            "schema": {
                                "type": "object",
                                "required": [
                                    "startDate",
                                    "endDate",
                                    "externalId",
                                    "contract_id",
                                    "type"
                                ],
                                "properties": {
                                    "startDate": {
                                        "type": "string",
                                        "example": "2022-01-22 00:00:29"
                                    },
                                    "endDate": {
                                        "type": "string",
                                        "example": "2022-01-22 13:23:29"
                                    },
                                    "externalId": {
                                        "type": "string",
                                        "example": "1341324"
                                    },
                                    "contract_id": {
                                        "type": "string",
                                        "example": "10"
                                    },
                                    "type": {
                                        "type": "string",
                                        "example": "1"
                                    }
                                }
                            }
                        }
                    }
                },
                "tags": [
                    "campaign"
                ]
            }
        },
        "/api/campaigns": {
            "get": {
                "summary": "list",
                "operationId": "list1campaign",
                "parameters": [],
                "responses": {
                    "200": {
                        "description": "",
                        "headers": {}
                    }
                },
                "tags": [
                    "campaign"
                ]
            }
        },
        "/api/campaign/{id}": {
            "parameters": [
                {
                    "in": "path",
                    "name": "id",
                    "schema": {
                        "type": "integer"
                    },
                    "required": true
                }
            ],
            "put": {
                "summary": "update",
                "operationId": "update2campaign",
                "parameters": [],
                "responses": {
                    "200": {
                        "description": "",
                        "headers": {}
                    }
                },
                "requestBody": {
                    "required": true,
                    "content": {
                        "application/x-www-form-urlencoded": {
                            "schema": {
                                "type": "object",
                                "required": [
                                    "startDate",
                                    "endDate",
                                    "externalId",
                                    "contract_id",
                                    "type"
                                ],
                                "properties": {
                                    "startDate": {
                                        "type": "string",
                                        "example": "2022-01-22 00:00:29"
                                    },
                                    "endDate": {
                                        "type": "string",
                                        "example": "2022-01-22 13:23:29"
                                    },
                                    "externalId": {
                                        "type": "string",
                                        "example": "1341324"
                                    },
                                    "contract_id": {
                                        "type": "string",
                                        "example": "10"
                                    },
                                    "type": {
                                        "type": "string",
                                        "example": "1"
                                    }
                                }
                            }
                        }
                    }
                },
                "tags": [
                    "campaign"
                ]
            },
            "get": {
                "summary": "view",
                "operationId": "view3campaign",
                "parameters": [],
                "responses": {
                    "200": {
                        "description": "",
                        "headers": {}
                    }
                },
                "tags": [
                    "campaign"
                ]
            },
            "delete": {
                "summary": "delete",
                "operationId": "delete4campaign",
                "parameters": [],
                "responses": {
                    "200": {
                        "description": "",
                        "headers": {}
                    }
                },
                "tags": [
                    "campaign"
                ]
            }
        },
        "/api/contract": {
            "post": {
                "summary": "create",
                "operationId": "create0contract",
                "parameters": [],
                "responses": {
                    "200": {
                        "description": "",
                        "headers": {}
                    }
                },
                "requestBody": {
                    "required": true,
                    "content": {
                        "multipart/form-data": {
                            "schema": {
                                "type": "object",
                                "required": [
                                    "amount",
                                    "date",
                                    "name",
                                    "isVat",
                                    "number",
                                    "subjectContract",
                                    "agency_id",
                                    "externalId",
                                    "externalContractorId",
                                    "externalClientId",
                                    "advertiser_id"
                                ],
                                "properties": {
                                    "amount": {
                                        "type": "string",
                                        "example": "222"
                                    },
                                    "date": {
                                        "type": "string",
                                        "example": "2022-01-22 13:23:29"
                                    },
                                    "name": {
                                        "type": "string",
                                        "example": "test"
                                    },
                                    "isVat": {
                                        "type": "string",
                                        "example": "1"
                                    },
                                    "number": {
                                        "type": "string",
                                        "example": "222"
                                    },
                                    "subjectContract": {
                                        "type": "string",
                                        "example": "test"
                                    },
                                    "agency_id": {
                                        "type": "string",
                                        "example": "7"
                                    },
                                    "externalId": {
                                        "type": "string",
                                        "example": "215"
                                    },
                                    "externalContractorId": {
                                        "type": "string",
                                        "example": "555"
                                    },
                                    "externalClientId": {
                                        "type": "string",
                                        "example": "666"
                                    },
                                    "advertiser_id": {
                                        "type": "string",
                                        "example": "4"
                                    }
                                }
                            }
                        }
                    }
                },
                "tags": [
                    "contract"
                ]
            }
        },
        "/api/contracts": {
            "get": {
                "summary": "list",
                "operationId": "list1contract",
                "parameters": [],
                "responses": {
                    "200": {
                        "description": "",
                        "headers": {}
                    }
                },
                "tags": [
                    "contract"
                ]
            }
        },
        "/api/contract/{id}": {
            "parameters": [
                {
                    "in": "path",
                    "name": "id",
                    "schema": {
                        "type": "integer"
                    },
                    "required": true
                }
            ],
            "put": {
                "summary": "update",
                "operationId": "update2contract",
                "parameters": [],
                "responses": {
                    "200": {
                        "description": "",
                        "headers": {}
                    }
                },
                "requestBody": {
                    "required": true,
                    "content": {
                        "application/x-www-form-urlencoded": {
                            "schema": {
                                "type": "object",
                                "required": [
                                    "amount",
                                    "date",
                                    "name",
                                    "isVat",
                                    "number",
                                    "subjectContract",
                                    "agency_id",
                                    "externalId",
                                    "externalContractorId",
                                    "externalClientId"
                                ],
                                "properties": {
                                    "amount": {
                                        "type": "string",
                                        "example": "222"
                                    },
                                    "date": {
                                        "type": "string",
                                        "example": "2022-01-22 13:23:29"
                                    },
                                    "name": {
                                        "type": "string",
                                        "example": "test"
                                    },
                                    "isVat": {
                                        "type": "string",
                                        "example": "1"
                                    },
                                    "number": {
                                        "type": "string",
                                        "example": "222"
                                    },
                                    "subjectConract": {
                                        "type": "string",
                                        "example": "test"
                                    },
                                    "agency_id": {
                                        "type": "string",
                                        "example": "2"
                                    },
                                    "externalId": {
                                        "type": "string",
                                        "example": "4"
                                    },
                                    "externalContractorId": {
                                        "type": "string",
                                        "example": "22"
                                    },
                                    "externalClientId": {
                                        "type": "string",
                                        "example": "11"
                                    }
                                }
                            }
                        }
                    }
                },
                "tags": [
                    "contract"
                ]
            },
            "get": {
                "summary": "view",
                "operationId": "view3c",
                "parameters": [],
                "responses": {
                    "200": {
                        "description": "",
                        "headers": {}
                    }
                },
                "tags": [
                    "contract"
                ]
            },
            "delete": {
                "summary": "delete",
                "operationId": "delete4contract",
                "parameters": [],
                "responses": {
                    "200": {
                        "description": "",
                        "headers": {}
                    }
                },
                "tags": [
                    "contract"
                ]
            }
        },
        "/api/creative": {
            "post": {
                "summary": "create",
                "operationId": "create0creative",
                "parameters": [],
                "responses": {
                    "200": {
                        "description": "",
                        "headers": {}
                    }
                },
                "requestBody": {
                    "required": true,
                    "content": {
                        "multipart/form-data": {
                            "schema": {
                                "type": "object",
                                "required": [
                                    "category",
                                    "descriptionObject",
                                    "domainSource",
                                    "urlSource",
                                    "systemAdv",
                                    "sex",
                                    "age",
                                    "url",
                                    "mediaUrl",
                                    "textData",
                                    "targeting_region_id",
                                    "campaign_id",
                                    "externalId"
                                ],
                                "properties": {
                                    "category": {
                                        "type": "string",
                                        "example": "1"
                                    },
                                    "domainSource": {
                                        "type": "string",
                                        "example": "domainSource"
                                    },
                                    "urlSource": {
                                        "type": "string",
                                        "example": "urlSource"
                                    },
                                    "systemAdv": {
                                        "type": "string",
                                        "example": "systemAdv"
                                    },
                                    "sex": {
                                        "type": "string",
                                        "example": "0"
                                    },
                                    "age": {
                                        "type": "string",
                                        "example": "35"
                                    },
                                    "descriptionObject": {
                                        "type": "string",
                                        "example": "descriptionObject"
                                    },
                                    "url": {
                                        "type": "string",
                                        "example": "url"
                                    },
                                    "mediaUrl": {
                                        "type": "string",
                                        "example": "mediaUrl"
                                    },
                                    "textData": {
                                        "type": "string",
                                        "example": "textData"
                                    },
                                    "targeting_region_id": {
                                        "type": "string",
                                        "example": "1"
                                    },
                                    "campaign_id": {
                                        "type": "string",
                                        "example": "4"
                                    },
                                    "externalId": {
                                        "type": "string",
                                        "example": "23"
                                    }
                                }
                            }
                        }
                    }
                },
                "tags": [
                    "creative"
                ]
            }
        },
        "/api/creatives": {
            "get": {
                "summary": "list",
                "operationId": "list1creative",
                "parameters": [],
                "responses": {
                    "200": {
                        "description": "",
                        "headers": {}
                    }
                },
                "tags": [
                    "creative"
                ]
            }
        },
        "/api/creative/{id}": {
            "parameters": [
                {
                    "in": "path",
                    "name": "id",
                    "schema": {
                        "type": "integer"
                    },
                    "required": true
                }
            ],
            "put": {
                "summary": "update",
                "operationId": "update2creative",
                "parameters": [],
                "responses": {
                    "200": {
                        "description": "",
                        "headers": {}
                    }
                },
                "requestBody": {
                    "required": true,
                    "content": {
                        "application/x-www-form-urlencoded": {
                            "schema": {
                                "type": "object",
                                "required": [
                                    "category",
                                    "descriptionObject",
                                    "domainSource",
                                    "urlSource",
                                    "systemAdv",
                                    "sex",
                                    "age",
                                    "url",
                                    "mediaUrl",
                                    "textData",
                                    "targeting_region_id",
                                    "campaign_id",
                                    "externalId"
                                ],
                                "properties": {
                                    "category": {
                                        "type": "string",
                                        "example": "1"
                                    },
                                    "domainSource": {
                                        "type": "string",
                                        "example": "domainSource"
                                    },
                                    "urlSource": {
                                        "type": "string",
                                        "example": "urlSource"
                                    },
                                    "systemAdv": {
                                        "type": "string",
                                        "example": "systemAdv"
                                    },
                                    "sex": {
                                        "type": "string",
                                        "example": "0"
                                    },
                                    "age": {
                                        "type": "string",
                                        "example": "35"
                                    },
                                    "descriptionObject": {
                                        "type": "string",
                                        "example": "descriptionObject"
                                    },
                                    "url": {
                                        "type": "string",
                                        "example": "url"
                                    },
                                    "mediaUrl": {
                                        "type": "string",
                                        "example": "mediaUrl"
                                    },
                                    "textData": {
                                        "type": "string",
                                        "example": "textData"
                                    },
                                    "targeting_region_id": {
                                        "type": "string",
                                        "example": "1"
                                    },
                                    "campaign_id": {
                                        "type": "string",
                                        "example": "4"
                                    },
                                    "externalId": {
                                        "type": "string",
                                        "example": "23"
                                    }
                                }
                            }
                        }
                    }
                },
                "tags": [
                    "creative"
                ]
            },
            "get": {
                "summary": "view",
                "operationId": "view3creative",
                "parameters": [],
                "responses": {
                    "200": {
                        "description": "",
                        "headers": {}
                    }
                },
                "tags": [
                    "creative"
                ]
            },
            "delete": {
                "summary": "delete",
                "operationId": "delete4creative",
                "parameters": [],
                "responses": {
                    "200": {
                        "description": "",
                        "headers": {}
                    }
                },
                "tags": [
                    "creative"
                ]
            }
        },
        "/api/invoice": {
            "post": {
                "summary": "create",
                "operationId": "create0invoice",
                "parameters": [],
                "responses": {
                    "200": {
                        "description": "",
                        "headers": {}
                    }
                },
                "requestBody": {
                    "required": true,
                    "content": {
                        "multipart/form-data": {
                            "schema": {
                                "type": "object",
                                "required": [
                                    "amount",
                                    "endDate",
                                    "isVat",
                                    "startDate",
                                    "externalId",
                                    "campaign_id",
                                    "contract_id"
                                ],
                                "properties": {
                                    "amount": {
                                        "type": "string",
                                        "example": "1"
                                    },
                                    "endDate": {
                                        "type": "string",
                                        "example": "2022-01-22 13:23:29"
                                    },
                                    "isVat": {
                                        "type": "string",
                                        "example": "1"
                                    },
                                    "startDate": {
                                        "type": "string",
                                        "example": "2022-01-22 13:23:29"
                                    },
                                    "externalId": {
                                        "type": "string",
                                        "example": "56"
                                    },
                                    "campaign_id": {
                                        "type": "string",
                                        "example": "4"
                                    },
                                    "contract_id": {
                                        "type": "string",
                                        "example": "16"
                                    }
                                }
                            }
                        }
                    }
                },
                "tags": [
                    "invoice"
                ]
            }
        },
        "/api/invoices": {
            "get": {
                "summary": "list",
                "operationId": "list1invoice",
                "parameters": [],
                "responses": {
                    "200": {
                        "description": "",
                        "headers": {}
                    }
                },
                "tags": [
                    "invoice"
                ]
            }
        },
        "/api/invoice/{id}": {
            "parameters": [
                {
                    "in": "path",
                    "name": "id",
                    "schema": {
                        "type": "integer"
                    },
                    "required": true
                }
            ],
            "put": {
                "summary": "update",
                "operationId": "update2invoice",
                "parameters": [],
                "responses": {
                    "200": {
                        "description": "",
                        "headers": {}
                    }
                },
                "requestBody": {
                    "required": true,
                    "content": {
                        "application/x-www-form-urlencoded": {
                            "schema": {
                                "type": "object",
                                "required": [
                                    "amount",
                                    "endDate",
                                    "isVat",
                                    "startDate",
                                    "externalId",
                                    "campaign_id",
                                    "contract_id"
                                ],
                                "properties": {
                                    "amount": {
                                        "type": "string",
                                        "example": "1"
                                    },
                                    "endDate": {
                                        "type": "string",
                                        "example": "2022-01-22 13:23:29"
                                    },
                                    "isVat": {
                                        "type": "string",
                                        "example": "1"
                                    },
                                    "startDate": {
                                        "type": "string",
                                        "example": "2022-01-22 13:23:29"
                                    },
                                    "externalId": {
                                        "type": "string",
                                        "example": "1"
                                    },
                                    "campaign_id": {
                                        "type": "string",
                                        "example": "1"
                                    },
                                    "contract_id": {
                                        "type": "string",
                                        "example": "1"
                                    }
                                }
                            }
                        }
                    }
                },
                "tags": [
                    "invoice"
                ]
            },
            "get": {
                "summary": "view",
                "operationId": "view3invoice",
                "parameters": [],
                "responses": {
                    "200": {
                        "description": "",
                        "headers": {}
                    }
                },
                "tags": [
                    "invoice"
                ]
            },
            "delete": {
                "summary": "delete",
                "operationId": "delete4invoice",
                "parameters": [],
                "responses": {
                    "200": {
                        "description": "",
                        "headers": {}
                    }
                },
                "tags": [
                    "invoice"
                ]
            }
        },
        "/api/stat": {
            "post": {
                "summary": "create",
                "operationId": "createStat",
                "parameters": [],
                "responses": {
                    "200": {
                        "description": "",
                        "headers": {}
                    }
                },
                "requestBody": {
                    "required": true,
                    "content": {
                        "multipart/form-data": {
                            "schema": {
                                "type": "object",
                                "required": [
                                    "clicks",
                                    "convs",
                                    "imps",
                                    "date",
                                    "campaign_id",
                                    "creative_id"
                                ],
                                "properties": {
                                    "clicks": {
                                        "type": "string",
                                        "example": "12"
                                    },
                                    "convs": {
                                        "type": "string",
                                        "example": "11"
                                    },
                                    "imps": {
                                        "type": "string",
                                        "example": "13"
                                    },
                                    "date": {
                                        "type": "string",
                                        "example": "2022-01-22 13:23:29"
                                    },
                                    "campaign_id": {
                                        "type": "string",
                                        "example": "1"
                                    },
                                    "creative_id": {
                                        "type": "string",
                                        "example": "1"
                                    }
                                }
                            }
                        }
                    }
                },
                "tags": [
                    "stat"
                ]
            }
        },
        "/api/stats": {
            "get": {
                "summary": "list",
                "operationId": "listStats",
                "parameters": [],
                "responses": {
                    "200": {
                        "description": "",
                        "headers": {}
                    }
                },
                "tags": [
                    "stat"
                ]
            }
        },
        "/api/stat/{id}": {
            "parameters": [
                {
                    "in": "path",
                    "name": "id",
                    "schema": {
                        "type": "integer"
                    },
                    "required": true
                }
            ],
            "put": {
                "summary": "update",
                "operationId": "updateStats",
                "parameters": [],
                "responses": {
                    "200": {
                        "description": "",
                        "headers": {}
                    }
                },
                "requestBody": {
                    "required": true,
                    "content": {
                        "application/x-www-form-urlencoded": {
                            "schema": {
                                "type": "object",
                                "required": [
                                    "clicks",
                                    "convs",
                                    "imps",
                                    "date",
                                    "campaign_id",
                                    "creative_id"
                                ],
                                "properties": {
                                    "clicks": {
                                        "type": "string",
                                        "example": "12"
                                    },
                                    "convs": {
                                        "type": "string",
                                        "example": "11"
                                    },
                                    "imps": {
                                        "type": "string",
                                        "example": "13"
                                    },
                                    "date": {
                                        "type": "string",
                                        "example": "2022-01-22 13:23:29"
                                    },
                                    "campaign_id": {
                                        "type": "string",
                                        "example": "1"
                                    },
                                    "creative_id": {
                                        "type": "string",
                                        "example": "1"
                                    }
                                }
                            }
                        }
                    }
                },
                "tags": [
                    "stat"
                ]
            },
            "get": {
                "summary": "view",
                "operationId": "viewStat",
                "parameters": [],
                "responses": {
                    "200": {
                        "description": "",
                        "headers": {}
                    }
                },
                "tags": [
                    "stat"
                ]
            },
            "delete": {
                "summary": "delete",
                "operationId": "deleteStat",
                "parameters": [],
                "responses": {
                    "200": {
                        "description": "",
                        "headers": {}
                    }
                },
                "tags": [
                    "stat"
                ]
            }
        },
        "/api/auth": {
            "post": {
                "summary": "auth",
                "operationId": "auth",
                "parameters": [],
                "responses": {
                    "200": {
                        "description": "",
                        "headers": {}
                    }
                },
                "requestBody": {
                    "required": true,
                    "content": {
                        "multipart/form-data": {
                            "schema": {
                                "type": "object",
                                "required": [
                                    "name",
                                    "password"
                                ],
                                "properties": {
                                    "name": {
                                        "type": "string",
                                        "example": "aggregator"
                                    },
                                    "password": {
                                        "type": "string",
                                        "example": "aggregator"
                                    }
                                }
                            },
                            "example": [
                                {
                                    "key": "name",
                                    "value": "aggregator",
                                    "type": "text"
                                },
                                {
                                    "key": "password",
                                    "value": "aggregator",
                                    "type": "text"
                                }
                            ]
                        }
                    }
                },
                "tags": [
                    "auth"
                ]
            }
        }
    },
    "components": {
        "securitySchemes": {
            "bearerAuth": {
                "type": "http",
                "scheme": "bearer",
                "bearerFormat": "JWT"
            }
        }
    },
    "security": [
        {
            "bearerAuth": []
        }
    ],
    "tags": [
        {
            "name": "agency",
            "description": "Agency"
        },
        {
            "name": "advertiser",
            "description": "Advertiser"
        },
        {
            "name": "invoice",
            "description": "Invoice"
        },
        {
            "name": "creative",
            "description": "Creative"
        },
        {
            "name": "stat",
            "description": "Statistic"
        },
        {
            "name": "contract",
            "description": "Contract"
        },
        {
            "name": "campaign",
            "description": "Campaign"
        },
        {
            "name": "auth",
            "description": "Authentication"
        }
    ],
    "externalDocs": {
        "url": "",
        "description": ""
    }
}
